…
    ## Rows: 822 Columns: 9
    ## ── Column specification ────────────────────────────────────────────────────────
    ## Delimiter: ","
    ## dbl  (8): prez_gop, gov_gop, sen_gop, rep_gop, prez_dem, gov_dem, sen_dem, r...
    ## date (1): mon
    ## 
    ## ℹ Use `spec()` to retrieve the full column specification for this data.
    ## ℹ Specify the column types or set `show_col_types = FALSE` to quiet this message.

``` r
pols_month
```

    ## # A tibble: 822 × 9
    ##     year month gov_gop sen_gop rep_gop gov_dem sen_dem rep_dem president
    ##    <int> <chr>   <dbl>   <dbl>   <dbl>   <dbl>   <dbl>   <dbl> <chr>    
    ##  1  1947 Jan        23      51     253      23      45     198 dem      
    ##  2  1947 Feb        23      51     253      23      45     198 dem      
    ##  3  1947 Mar        23      51     253      23      45     198 dem      
    ##  4  1947 Apr        23      51     253      23      45     198 dem      
    ##  5  1947 May        23      51     253      23      45     198 dem      
    ##  6  1947 Jun        23      51     253      23      45     198 dem      
    ##  7  1947 Jul        23      51     253      23      45     198 dem      
    ##  8  1947 Aug        23      51     253      23      45     198 dem      
    ##  9  1947 Sep        23      51     253      23      45     198 dem      
    ## 10  1947 Oct        23      51     253      23      45     198 dem      
    ## # ℹ 812 more rows
…
    ## Rows: 787 Columns: 2
    ## ── Column specification ────────────────────────────────────────────────────────
    ## Delimiter: ","
    ## chr (1): date
    ## dbl (1): close
    ## 
    ## ℹ Use `spec()` to retrieve the full column specification for this data.
    ## ℹ Specify the column types or set `show_col_types = FALSE` to quiet this message.

``` r
snp
```

    ## # A tibble: 787 × 3
    ##     year month close
    ##    <dbl> <chr> <dbl>
    ##  1  1950 Jan    17.0
    ##  2  1950 Feb    17.2
    ##  3  1950 Mar    17.3
    ##  4  1950 Apr    18.0
    ##  5  1950 May    18.8
    ##  6  1950 Jun    17.7
    ##  7  1950 Jul    17.8
    ##  8  1950 Aug    18.4
    ##  9  1950 Sep    19.5
    ## 10  1950 Oct    19.5
    ## # ℹ 777 more rows
…
    ## Rows: 68 Columns: 13
    ## ── Column specification ────────────────────────────────────────────────────────
    ## Delimiter: ","
    ## dbl (13): Year, Jan, Feb, Mar, Apr, May, Jun, Jul, Aug, Sep, Oct, Nov, Dec
    ## 
    ## ℹ Use `spec()` to retrieve the full column specification for this data.
    ## ℹ Specify the column types or set `show_col_types = FALSE` to quiet this message.

``` r
unemployment_tidy 
```

    ## # A tibble: 816 × 3
    ##     year month unemployment_rate
    ##    <dbl> <chr>             <dbl>
    ##  1  1948 Jan                 3.4
    ##  2  1948 Feb                 3.8
    ##  3  1948 Mar                 4  
    ##  4  1948 Apr                 3.9
    ##  5  1948 May                 3.5
    ##  6  1948 Jun                 3.6
    ##  7  1948 Jul                 3.6
    ##  8  1948 Aug                 3.9
    ##  9  1948 Sep                 3.8
    ## 10  1948 Oct                 3.7
    ## # ℹ 806 more rows

#### (4) Join the datasets by merging snp into pols, and merging unemployment into the result.

``` r
data_0 <- pols_month |>
  left_join(snp, by = c("year", "month")) |>
  left_join(unemployment_tidy, by = c("year", "month")) |>
  arrange(year, match(month, month.abb))
data_0
```

    ## # A tibble: 822 × 11
    ##     year month gov_gop sen_gop rep_gop gov_dem sen_dem rep_dem president close
    ##    <dbl> <chr>   <dbl>   <dbl>   <dbl>   <dbl>   <dbl>   <dbl> <chr>     <dbl>
    ##  1  1947 Jan        23      51     253      23      45     198 dem          NA
    ##  2  1947 Feb        23      51     253      23      45     198 dem          NA
    ##  3  1947 Mar        23      51     253      23      45     198 dem          NA
    ##  4  1947 Apr        23      51     253      23      45     198 dem          NA
    ##  5  1947 May        23      51     253      23      45     198 dem          NA
    ##  6  1947 Jun        23      51     253      23      45     198 dem          NA
    ##  7  1947 Jul        23      51     253      23      45     198 dem          NA
    ##  8  1947 Aug        23      51     253      23      45     198 dem          NA
    ##  9  1947 Sep        23      51     253      23      45     198 dem          NA
    ## 10  1947 Oct        23      51     253      23      45     198 dem          NA
    ## # ℹ 812 more rows
    ## # ℹ 1 more variable: unemployment_rate <dbl>

Note(useing date variable)

``` r
data_1 <- pols_month |>
  left_join(snp, by = c("year", "month")) |>
  left_join(unemployment_tidy, by = c("year", "month")) |>
  mutate(date = str_c(year, "-", sprintf("%02d", match(month, month.abb))))|> 
  relocate(date) |> 
  select(-year,-month) |> 
  arrange(date)
data_1
```

    ## # A tibble: 822 × 10
    ##    date    gov_gop sen_gop rep_gop gov_dem sen_dem rep_dem president close
    ##    <chr>     <dbl>   <dbl>   <dbl>   <dbl>   <dbl>   <dbl> <chr>     <dbl>
    ##  1 1947-01      23      51     253      23      45     198 dem          NA
    ##  2 1947-02      23      51     253      23      45     198 dem          NA
    ##  3 1947-03      23      51     253      23      45     198 dem          NA
    ##  4 1947-04      23      51     253      23      45     198 dem          NA
    ##  5 1947-05      23      51     253      23      45     198 dem          NA
    ##  6 1947-06      23      51     253      23      45     198 dem          NA
    ##  7 1947-07      23      51     253      23      45     198 dem          NA
    ##  8 1947-08      23      51     253      23      45     198 dem          NA
    ##  9 1947-09      23      51     253      23      45     198 dem          NA
    ## 10 1947-10      23      51     253      23      45     198 dem          NA
    ## # ℹ 812 more rows
    ## # ℹ 1 more variable: unemployment_rate <dbl>
…
